Pre-processing
…
Remove variables with high percentage of missing value

listings2 <- listings2 %>%
  select(-bedrooms, -neighbourhood, -neighborhood_overview, -host_neighbourhood)

Get summary of missingness in listing dataset

missvar <- miss_var_summary(listings2)
missvar

## # A tibble: 53 x 3
##    variable                    n_miss pct_miss
##    <chr>                        <int>    <dbl>
##  1 review_scores_location        1609    40.1 
##  2 review_scores_value           1609    40.1 
##  3 review_scores_checkin         1608    40.0 
##  4 review_scores_accuracy        1607    40.0 
##  5 review_scores_communication   1607    40.0 
##  6 review_scores_cleanliness     1606    40   
##  7 review_scores_rating          1602    39.9 
##  8 reviews_per_month             1552    38.7 
##  9 host_about_length             1176    29.3 
## 10 beds                            41     1.02
## # ... with 43 more rows
…
