Charts for Shiny PET proposal
…
alreviews <- reviews %>%
    mutate(comments = gsub(x = comments, pattern = "[^[:alpha:]]", " "))

Wordcloud

tidyreviews <- alreviews %>% 
  group_by(listing_id) %>% 
  unnest_tokens(word,comments) %>% 
  group_by(word) %>% 
  filter(n()>5) %>% 
  ungroup()
tidytext::stop_words

## # A tibble: 1,149 x 2
##    word        lexicon
##    <chr>       <chr>  
##  1 a           SMART  
##  2 a's         SMART  
##  3 able        SMART  
##  4 about       SMART  
##  5 above       SMART  
##  6 according   SMART  
##  7 accordingly SMART  
##  8 across      SMART  
##  9 actually    SMART  
## 10 after       SMART  
## # ... with 1,139 more rows
…
